{
	"name": "scratch",
	"lockfileVersion": 1,
	"packages": {
		"ca-certificates": {
			"type": "Debian",
			"version": "20230311",
			"resolved": "https://deb.debian.org/debian/pool/main/c/ca-certificates/ca-certificates_20230311_all.deb",
			"integrity": "5308b9bd88eebe2a48be3168cb3d87677aaec5da9c63ad0cf561a29b8219115c",
			"direct": true
		},
		"debconf": {
			"type": "Debian",
			"version": "1.5.82",
			"resolved": "https://deb.debian.org/debian/pool/main/d/debconf/debconf_1.5.82_all.deb",
			"integrity": "74ab14194a3762b2fc717917dcfda42929ab98e3c59295a063344dc551cd7cc8",
			"direct": false
		},
		"gcc-12-base": {
			"type": "Debian",
			"version": "12.2.0-14",
			"resolved": "https://deb.debian.org/debian/pool/main/g/gcc-12/gcc-12-base_12.2.0-14_amd64.deb",
			"integrity": "1a03df5a57833d65b5bb08cfa19d50e76f29088dc9e64fb934af42d9023a0807",
			"direct": false
		},
		"libc6": {
			"type": "Debian",
			"version": "2.36-9+deb12u8",
			"resolved": "https://deb.debian.org/debian/pool/main/g/glibc/libc6_2.36-9+deb12u8_amd64.deb",
			"integrity": "dbb527d86181f4b50edf5790c34c4d0b4ceac7f199b1266a9336b5708f8e9798",
			"direct": false
		},
		"libgcc-s1": {
			"type": "Debian",
			"version": "12.2.0-14",
			"resolved": "https://deb.debian.org/debian/pool/main/g/gcc-12/libgcc-s1_12.2.0-14_amd64.deb",
			"integrity": "f3d1d48c0599aea85b7f2077a01d285badc42998c1a1e7473935d5cf995c8141",
			"direct": false
		},
		"libssl3": {
			"type": "Debian",
			"version": "3.0.14-1~deb12u1",
			"resolved": "https://deb.debian.org/debian/pool/main/o/openssl/libssl3_3.0.14-1~deb12u1_amd64.deb",
			"integrity": "808ed2385960ee7b3365d583680e2f7a700c410b0ab4f81cc63b8bd166f61bae",
			"direct": false
		},
		"openssl": {
			"type": "Debian",
			"version": "3.0.14-1~deb12u1",
			"resolved": "https://deb.debian.org/debian/pool/main/o/openssl/openssl_3.0.14-1~deb12u1_amd64.deb",
			"integrity": "6ddf252c45bca1e1b815d2e32a63e2b976b6bc9c86031c819b363907dd5045f4",
			"direct": false
		}
	}
}
